0.07692308
0.07692308
0.08396947
0.08525045
0.09243697
0.09438714
0.10280374
0.10439129
0.11532077
0.11578947
0.12723198
0.13253012
0.14017852
0.15420968
0.15492958
0.16936864
0.18569058
0.18644068
0.20320066
0.22191193
0.23404255
0.24182327
0.26291749
0.28515969
0.30849600
0.31428571
0.33285282
0.35813672
0.38423508
0.41101744
0.43833770
0.46603703
0.47826087
0.49394739
0.52189553
0.54970725
0.57721174
0.60424573
0.63065720
0.65630862
0.68107942
0.70486774
0.72759137
0.74918797
0.76961453
0.78884638
0.80687567
0.82370957
0.83936824
0.85388278
0.86729316
0.87964623
0.89099393
0.90139165
0.91089674
0.91956737
0.92746146
0.93463584
0.94114568
0.94704392
0.95238095
1.00000000
